bpm;90;
bar length;16;
title;Hey;
artist;The Pixies;
Song;;
bar number;note;length
0;;
0;;
0;;
0;;
0;;
0;;
0;;
0;;
0;;
0;;
0;;
0;;
0;;
0;;
0;;
0;;
1;54;8
1;;
1;;
1;;
1;;
1;;
1;;
1;;
1;;
1;;
1;;
1;;
1;57;2
1;;
1;58;2
1;;
2;59;4
2;;
2;;
2;;
2;-1;2
2;;
2;59;4
2;;
2;;
2;;
2;59;2
2;;
2;60;2
2;;
2;61;2
2;;
3;62;4
3;;
3;;
3;;
3;-1;2
3;;
3;62;4
3;;
3;;
3;;
3;62;2
3;;
3;52;2
3;;
3;54;2
3;;
